{
  "production": {
    "name": "sa - Production Mode",
    "port": 5200,
    "mode": "production",
    "protocol": "https",
    "serverUrl": "production-sa-server.herokuapp.com",
    "serverUrlWebUrlLink": "https://production-sa-server.herokuapp.com/",
    "database": {
      "host": "ec2-54-81-37-115.compute-1.amazonaws.com",
      "database": "dcoi3ea6rpfgvj",
      "user": "nbpuguglbhbcyv",
      "port": 5432,
      "password": "5a62bee924396da12a6226de3031a513f62352e217180d5a445c847962a4d49f",
      "url": "postgres://nbpuguglbhbcyv:5a62bee924396da12a6226de3031a513f62352e217180d5a445c847962a4d49f@ec2-54-81-37-115.compute-1.amazonaws.com:5432/dcoi3ea6rpfgvj?sslmode=require"
    }
  }
}
