{
  "staging": {
    "name": "sa - Staging Mode",
    "port": 5100,
    "mode": "staging",
    "protocol": "https",
    "serverUrl": "staging-sa-server.herokuapp.com",
    "serverUrlWebUrlLink": "https://staging-sa-server.herokuapp.com/",
    "database": {
      "host": "6vdb.postgres.database.azure.com",
      "database": "6V",
      "user": "postgres@6vdb",
      "port": 5432,
      "password": "Ho@ngViet99"
    }
  }
}
